…
``` r
free_rating_GPS<-newGPS%>%
  group_by(Category..categorical.)%>%
  filter(Type..categorical.=='Free')%>%
  summarise(Freq = n(),avg_Rating = mean(Rating),
            median_Rating = median(Rating),sd = sd(Rating))%>%
  arrange(desc(avg_Rating))%>%
  print(nrow(free_rating_GPS), width = Inf)
```

    ## `summarise()` ungrouping output (override with `.groups` argument)

    ## # A tibble: 33 x 5
    ##    Category..categorical.  Freq avg_Rating median_Rating    sd
    ##    <fct>                  <int>      <dbl>         <dbl> <dbl>
    ##  1 EVENTS                    38       4.48          4.5  0.351
    ##  2 EDUCATION                 84       4.36          4.4  0.271
    ##  3 ART_AND_DESIGN            56       4.34          4.4  0.365
    ##  4 PARENTING                 43       4.34          4.4  0.416
    ##  5 BOOKS_AND_REFERENCE      134       4.33          4.4  0.446
    ##  6 PERSONALIZATION          214       4.29          4.3  0.362
    ##  7 BEAUTY                    37       4.29          4.3  0.371
    ##  8 SOCIAL                   154       4.26          4.3  0.497
    ##  9 WEATHER                   44       4.23          4.25 0.334
    ## 10 GAME                     758       4.22          4.3  0.395
    ## # … with 23 more rows
…
``` r
paid_rating_GPS<-newGPS%>%
  group_by(Category..categorical.)%>%
  filter(Type..categorical.=='Paid')%>%
  summarise(Freq = n(),avg_Rating = mean(Rating),
            median_Rating = median(Rating),sd = sd(Rating))%>%
  arrange(desc(avg_Rating))%>%
  print(nrow(paid_rating_GPS), width = Inf)
```

    ## `summarise()` ungrouping output (override with `.groups` argument)

    ## # A tibble: 27 x 5
    ##    Category..categorical.  Freq avg_Rating median_Rating      sd
    ##    <fct>                  <int>      <dbl>         <dbl>   <dbl>
    ##  1 NEWS_AND_MAGAZINES         2       4.8            4.8  0.141 
    ##  2 EDUCATION                  4       4.75           4.7  0.1   
    ##  3 ART_AND_DESIGN             3       4.73           4.7  0.0577
    ##  4 PARENTING                  1       4.7            4.7 NA     
    ##  5 ENTERTAINMENT              1       4.6            4.6 NA     
    ##  6 SHOPPING                   2       4.5            4.5  0.424 
    ##  7 PERSONALIZATION           62       4.44           4.4  0.371 
    ##  8 GAME                      74       4.36           4.4  0.361 
    ##  9 WEATHER                    6       4.35           4.5  0.442 
    ## 10 HEALTH_AND_FITNESS         8       4.31           4.4  0.394 
    ## # … with 17 more rows
…
